{
  "confirmation_request_examples": {
    "empty_confirmation": {
      "confirmed_properties": [],
      "discarded_properties": [],
      "confirmed_positions": [],
      "discarded_positions": []
    },
    "property_confirmation": {
      "confirmed_properties": [
        {
          "id": 1,
          "type": "BirthDate",
          "value": "1970-01-15",
          "confidence": 0.95
        }
      ],
      "discarded_properties": [
        {
          "id": 2,
          "type": "DeathDate",
          "value": "2020-12-31",
          "confidence": 0.3
        }
      ],
      "confirmed_positions": [],
      "discarded_positions": []
    },
    "position_confirmation": {
      "confirmed_properties": [],
      "discarded_properties": [],
      "confirmed_positions": [
        {
          "id": 1,
          "wikidata_id": "Q30185",
          "name": "mayor",
          "start_date": "2020",
          "end_date": "2024",
          "confidence": 0.90
        }
      ],
      "discarded_positions": [
        {
          "id": 2,
          "wikidata_id": "Q11696",
          "name": "President of the United States",
          "start_date": "2020",
          "end_date": null,
          "confidence": 0.2
        }
      ]
    },
    "mixed_confirmation": {
      "confirmed_properties": [
        {
          "id": 1,
          "type": "BirthDate",
          "value": "1970-01-15",
          "confidence": 0.95
        },
        {
          "id": 3,
          "type": "BirthPlace",
          "value": "Springfield, Illinois",
          "confidence": 0.85
        }
      ],
      "discarded_properties": [
        {
          "id": 2,
          "type": "DeathDate",
          "value": "2020-12-31",
          "confidence": 0.3
        }
      ],
      "confirmed_positions": [
        {
          "id": 1,
          "wikidata_id": "Q30185",
          "name": "mayor",
          "start_date": "2020",
          "end_date": "2024",
          "confidence": 0.90
        }
      ],
      "discarded_positions": []
    }
  },
  "api_response_examples": {
    "successful_confirmation": {
      "message": "Confirmation processed successfully",
      "confirmed_properties": 2,
      "discarded_properties": 1,
      "confirmed_positions": 1,
      "discarded_positions": 0
    },
    "politician_not_found": {
      "error": "Politician not found",
      "message": "No politician found with the specified ID",
      "status_code": 404
    },
    "invalid_request": {
      "error": "Invalid request",
      "message": "Missing required fields in confirmation request",
      "status_code": 400
    },
    "authentication_error": {
      "error": "Authentication failed",
      "message": "Invalid or missing authentication token",
      "status_code": 401
    },
    "permission_error": {
      "error": "Permission denied",
      "message": "User does not have permission to confirm data",
      "status_code": 403
    },
    "server_error": {
      "error": "Internal server error",
      "message": "An unexpected error occurred",
      "status_code": 500
    }
  },
  "politician_list_examples": {
    "paginated_response": {
      "politicians": [
        {
          "id": 1,
          "name": "John Doe",
          "wikidata_id": "Q123456",
          "has_unconfirmed_data": true
        },
        {
          "id": 2,
          "name": "Jane Smith",
          "wikidata_id": "Q234567",
          "has_unconfirmed_data": false
        }
      ],
      "total": 50,
      "page": 1,
      "per_page": 20,
      "total_pages": 3
    },
    "empty_response": {
      "politicians": [],
      "total": 0,
      "page": 1,
      "per_page": 20,
      "total_pages": 0
    }
  },
  "politician_detail_examples": {
    "politician_with_data": {
      "id": 1,
      "name": "John Doe",
      "wikidata_id": "Q123456",
      "is_deceased": false,
      "properties": [
        {
          "id": 1,
          "type": "BirthDate",
          "value": "1970-01-15",
          "source": "wikidata",
          "confirmed": true,
          "confidence": 0.95
        },
        {
          "id": 2,
          "type": "BirthPlace",
          "value": "Springfield, Illinois",
          "source": "extracted",
          "confirmed": false,
          "confidence": 0.85
        }
      ],
      "positions": [
        {
          "id": 1,
          "wikidata_id": "Q30185",
          "name": "mayor",
          "start_date": "2020",
          "end_date": "2024",
          "source": "wikidata",
          "confirmed": true,
          "confidence": 0.90
        }
      ],
      "citizenships": [
        {
          "country": "US",
          "country_name": "United States"
        }
      ],
      "sources": [
        {
          "url": "https://en.wikipedia.org/wiki/John_Doe",
          "type": "wikipedia"
        }
      ]
    },
    "politician_minimal_data": {
      "id": 2,
      "name": "Jane Smith",
      "wikidata_id": "Q234567",
      "is_deceased": false,
      "properties": [],
      "positions": [],
      "citizenships": [],
      "sources": []
    }
  },
  "validation_examples": {
    "invalid_property_type": {
      "confirmed_properties": [
        {
          "id": 1,
          "type": "InvalidType",
          "value": "some value",
          "confidence": 0.95
        }
      ]
    },
    "invalid_confidence_score": {
      "confirmed_properties": [
        {
          "id": 1,
          "type": "BirthDate",
          "value": "1970-01-15",
          "confidence": 1.5
        }
      ]
    },
    "missing_required_fields": {
      "confirmed_properties": [
        {
          "type": "BirthDate",
          "value": "1970-01-15"
        }
      ]
    },
    "invalid_date_format": {
      "confirmed_properties": [
        {
          "id": 1,
          "type": "BirthDate",
          "value": "January 15, 1970",
          "confidence": 0.95
        }
      ]
    }
  },
  "query_parameters": {
    "pagination": {
      "page": 1,
      "per_page": 20,
      "max_per_page": 100
    },
    "filtering": {
      "has_unconfirmed_data": true,
      "country": "US",
      "search": "John"
    },
    "sorting": {
      "sort_by": "name",
      "sort_order": "asc"
    }
  },
  "mock_users": [
    {
      "id": 1,
      "username": "testuser",
      "email": "test@example.com",
      "roles": ["user"]
    },
    {
      "id": 2,
      "username": "admin",
      "email": "admin@example.com",
      "roles": ["admin", "user"]
    },
    {
      "id": 3,
      "username": "editor",
      "email": "editor@example.com",
      "roles": ["editor", "user"]
    }
  ],
  "database_error_scenarios": {
    "connection_error": {
      "error_type": "DatabaseConnectionError",
      "message": "Unable to connect to database"
    },
    "constraint_violation": {
      "error_type": "IntegrityError",
      "message": "Database constraint violation"
    },
    "timeout_error": {
      "error_type": "DatabaseTimeoutError",
      "message": "Database operation timed out"
    }
  },
  "rate_limiting": {
    "rate_limit_exceeded": {
      "error": "Rate limit exceeded",
      "message": "Too many requests. Please try again later.",
      "retry_after": 60
    },
    "rate_limit_headers": {
      "X-RateLimit-Limit": "100",
      "X-RateLimit-Remaining": "0",
      "X-RateLimit-Reset": "1640995200"
    }
  }
}